<svg xmlns="http://www.w3.org/2000/svg" width="30" height="30" viewBox="0 0 30 30">
  <g id="Grupo_3835" data-name="Grupo 3835" transform="translate(-1850 -15)">
    <g id="Grupo_3833" data-name="Grupo 3833" transform="translate(1850 15)">
      <path id="Trazado_8568" data-name="Trazado 8568" d="M30,15A15,15,0,1,1,15,0,14.978,14.978,0,0,1,30,15Z" fill="#b7c1d9"/>
      <path id="Trazado_8569" data-name="Trazado 8569" d="M31.92,31.675a15.007,15.007,0,0,1-17.97-.051,4.541,4.541,0,0,1,4.136-2.67A2.517,2.517,0,0,0,20.2,27.8a2.9,2.9,0,0,0,.407-1.783L20.619,26a6.023,6.023,0,0,1-3.724-5.571v-.189a1.506,1.506,0,0,1-1.526-1.483V16.212a8.441,8.441,0,0,1,2.267-6.154c2.61-2.516,6.746-2.31,9.741-.964a.118.118,0,0,1,.06.163.126.126,0,0,1-.064.06l-.78.321a.122.122,0,0,0,.034.236L27,9.916a6.147,6.147,0,0,1,4.551,2.824.13.13,0,0,1-.017.15,3.692,3.692,0,0,0-1,2.529V18.74a1.5,1.5,0,0,1-1.5,1.5h-.09v.189A6.023,6.023,0,0,1,25.226,26l.009.026a2.867,2.867,0,0,0,.407,1.783,2.322,2.322,0,0,0,.407.48,2.533,2.533,0,0,0,1.71.669,4.546,4.546,0,0,1,.69.051c.154.026.3.056.446.09s.287.086.424.133a4.819,4.819,0,0,1,.6.274c.129.073.253.146.373.227a4.694,4.694,0,0,1,.673.557A4.429,4.429,0,0,1,31.92,31.675Z" transform="translate(-7.971 -4.636)" fill="#e7edf9"/>
      <path id="Trazado_8570" data-name="Trazado 8570" d="M31.92,57.93a15.007,15.007,0,0,1-17.97-.051,4.541,4.541,0,0,1,4.136-2.67A2.517,2.517,0,0,0,20.2,54.06a4.178,4.178,0,0,0,5.439,0,2.322,2.322,0,0,0,.407.48,2.533,2.533,0,0,0,1.71.669,4.546,4.546,0,0,1,.69.051c.154.021.3.056.446.09a4.445,4.445,0,0,1,.424.133,4.274,4.274,0,0,1,.6.274,4.118,4.118,0,0,1,.373.227,4.227,4.227,0,0,1,.673.557A4.429,4.429,0,0,1,31.92,57.93Z" transform="translate(-7.971 -30.891)" fill="#fbb400"/>
      <path id="Trazado_8570-2" data-name="Trazado 8570" d="M33.446,12.735a.128.128,0,0,1-.016.15,3.686,3.686,0,0,0-1.006,2.531V18.74a1.5,1.5,0,0,1-1.5,1.5l-.086,0V16.472a2.923,2.923,0,0,0-2.923-2.923H21.706a2.923,2.923,0,0,0-2.923,2.923v3.762a1.5,1.5,0,0,1-1.523-1.482V16.208a8.431,8.431,0,0,1,2.265-6.153c2.61-2.516,6.747-2.31,9.743-.964a.122.122,0,0,1,0,.224l-.781.322a.122.122,0,0,0,.033.234l.38.043a6.145,6.145,0,0,1,4.551,2.823Z" transform="translate(-9.861 -4.635)" fill="#727e99"/>
      <path id="Trazado_8571" data-name="Trazado 8571" d="M32.871,27.676a6.031,6.031,0,1,1-12.062,0c0-.063,0-.126,0-.19V23.723A2.923,2.923,0,0,1,23.735,20.8h6.212a2.923,2.923,0,0,1,2.923,2.923Z" transform="translate(-11.891 -11.886)" fill="#e7edf9"/>
      <path id="Trazado_8574" data-name="Trazado 8574" d="M34.09,50.869a6.045,6.045,0,0,1-4.766,0,3.782,3.782,0,0,0,.069-1l.009-.023a6.045,6.045,0,0,0,4.61,0l.009.023A3.782,3.782,0,0,0,34.09,50.869Z" transform="translate(-16.757 -28.483)" fill="#dbe1ed"/>
    </g>
  </g>
</svg>
