<svg id="logo-movil" xmlns="http://www.w3.org/2000/svg" width="109.086" height="60.379" viewBox="0 0 109.086 60.379">
  <path id="Trazado_7500" data-name="Trazado 7500" d="M1494.211,207.511c-9.858,17.981-17.1,19.742-18.241,19.909a7.507,7.507,0,0,1-3.018-.83c-3.621-1.786-7.042-6.153-9.858-10.739-.671-1.031-1.274-2.029-1.811-2.984-.067-.025-.067-.05-.067-.067-2.414-4.183-4.627-7.8-6.572-10.915,0-.059-.067-.117-.135-.176,10.059-17.973,17.437-19.507,18.375-19.633h0a7.857,7.857,0,0,1,3.085.838c3.554,1.786,7.042,6.153,9.925,10.738.6,1.031,1.14,2.029,1.744,2.993v.067C1490.12,200.838,1492.267,204.417,1494.211,207.511Z" transform="translate(-1419.419 -174.691)" fill="#fff" opacity="0.4" style="isolation: isolate"/>
  <path id="Trazado_7501" data-name="Trazado 7501" d="M1556.068,194.224c-1.744,3.6-11.2,22.441-17.168,23.64H1503.49l.134-.008c1.14-.176,8.383-1.936,18.241-19.926a196.839,196.839,0,0,0,13.614-32.509.435.435,0,0,1,.536-.285c.134.034.2.092.2.168l8.182,11.485a18.356,18.356,0,0,0-.6,2.708c-.4,4.2,1.409,7.8,3.89,8.031a3.808,3.808,0,0,0,3.219-1.568l5.03,7.151A.984.984,0,0,1,1556.068,194.224Z" transform="translate(-1447.099 -165.114)" fill="#fff"/>
  <path id="Trazado_7502" data-name="Trazado 7502" d="M1427.456,182.037s-.067,0-.067.008h0c-.939.126-8.316,1.66-18.376,19.633A191.391,191.391,0,0,0,1395,234.741a.49.49,0,0,1-.6.277c-.134-.025-.134-.075-.2-.159l-8.383-11.669a9.8,9.8,0,0,0,.536-2.766c.4-4.217-1.341-7.838-3.89-8.073a3.84,3.84,0,0,0-3.286,1.609l-5.1-7.05a1.317,1.317,0,0,1-.067-1.123c1.811-3.6,11.4-22.55,17.437-23.757Z" transform="translate(-1373.914 -174.665)" fill="#fff"/>
</svg>
